Family Guy
…
family_bigram_clean_unite <- 
  family_bigram_clean_seperate %>% 
  unite(bigram, word1, word2, sep = " ") %>% 
  filter(bigram != "NA NA")

family_bigram_clean_unite %>% count(bigram) %>% arrange(-n)

## # A tibble: 1,581 x 2
##    bigram             n
##    <chr>          <int>
##  1 unga bunga         9
##  2 meg meg            6
##  3 bam bam            5
##  4 brian brian        4
##  5 bunga unga         4
##  6 cool hwhip         4
##  7 damn dials         4
##  8 fucking car        4
##  9 glenn quagmire     4
## 10 holy crap          4
## # ... with 1,571 more rows
…
